\relax 
\providecommand{\transparent@use}[1]{}
\providecommand\hyper@newdestlabel[2]{}
\catcode `"\active 
\catcode `-\active 
\providecommand\HyperFirstAtBeginDocument{\AtBeginDocument}
\HyperFirstAtBeginDocument{\ifx\hyper@anchor\@undefined
\global\let\oldcontentsline\contentsline
\gdef\contentsline#1#2#3#4{\oldcontentsline{#1}{#2}{#3}}
\global\let\oldnewlabel\newlabel
\gdef\newlabel#1#2{\newlabelxx{#1}#2}
\gdef\newlabelxx#1#2#3#4#5#6{\oldnewlabel{#1}{{#2}{#3}}}
\AtEndDocument{\ifx\hyper@anchor\@undefined
\let\contentsline\oldcontentsline
\let\newlabel\oldnewlabel
\fi}
\fi}
\global\let\hyper@last\relax 
\gdef\HyperFirstAtBeginDocument#1{#1}
\providecommand\HyField@AuxAddToFields[1]{}
\providecommand\HyField@AuxAddToCoFields[2]{}
\babel@aux{czech}{}
\@writefile{toc}{\contentsline {section}{\numberline {1}Popis probl\'emu}{1}{section.1}\protected@file@percent }
\@writefile{lof}{\contentsline {figure}{\numberline {1}{\ignorespaces Hracie pole\relax }}{1}{figure.caption.1}\protected@file@percent }
\@writefile{lof}{\contentsline {figure}{\numberline {2}{\ignorespaces Robot CRS93\relax }}{1}{figure.caption.2}\protected@file@percent }
\@writefile{toc}{\contentsline {section}{\numberline {2}Rie\v senie probl\'emu}{2}{section.2}\protected@file@percent }
\@writefile{toc}{\contentsline {subsection}{\numberline {2.1}S\'uradnice x,y,z}{2}{subsection.2.1}\protected@file@percent }
\@writefile{toc}{\contentsline {subsection}{\numberline {2.2}Yaw pitch roll z\'ap\"astia}{2}{subsection.2.2}\protected@file@percent }
\@writefile{lof}{\contentsline {figure}{\numberline {3}{\ignorespaces Vypo\v c\IeC {\'\i }tan\'e body\relax }}{2}{figure.caption.3}\protected@file@percent }
\@writefile{toc}{\contentsline {section}{\numberline {3}Upresnenie \v specifik\'acie v priebehu rie\v senia}{3}{section.3}\protected@file@percent }
\@writefile{toc}{\contentsline {section}{\numberline {4}Implement\'acia}{3}{section.4}\protected@file@percent }
\@writefile{toc}{\contentsline {subsection}{\numberline {4.1}getPos}{3}{subsection.4.1}\protected@file@percent }
\@writefile{toc}{\contentsline {subsection}{\numberline {4.2}getCfg}{3}{subsection.4.2}\protected@file@percent }
\@writefile{toc}{\contentsline {subsection}{\numberline {4.3}backStep}{3}{subsection.4.3}\protected@file@percent }
\@writefile{toc}{\contentsline {subsection}{\numberline {4.4}createButtons}{3}{subsection.4.4}\protected@file@percent }
\@writefile{toc}{\contentsline {subsubsection}{\numberline {4.4.1}btnCB}{3}{subsubsection.4.4.1}\protected@file@percent }
\@writefile{toc}{\contentsline {subsubsection}{\numberline {4.4.2}toolCB}{3}{subsubsection.4.4.2}\protected@file@percent }
\@writefile{toc}{\contentsline {subsubsection}{\numberline {4.4.3}gripTool}{3}{subsubsection.4.4.3}\protected@file@percent }
\@writefile{toc}{\contentsline {subsection}{\numberline {4.5}toolCali}{4}{subsection.4.5}\protected@file@percent }
\@writefile{toc}{\contentsline {subsection}{\numberline {4.6}main}{4}{subsection.4.6}\protected@file@percent }
\@writefile{toc}{\contentsline {section}{\numberline {5}Priebeh hry}{4}{section.5}\protected@file@percent }
\@writefile{lof}{\contentsline {figure}{\numberline {4}{\ignorespaces Grafick\'e rozhranie\relax }}{4}{figure.caption.4}\protected@file@percent }
\@writefile{toc}{\contentsline {section}{\numberline {6}V\'ysledok}{4}{section.6}\protected@file@percent }
